cocotb/fifo/iverilog/dump.vcd
$date
	Sat May  9 21:58:34 2020
$end
$version
	Icarus Verilog
$end
$timescale
	1s
$end
$scope module prga_fifo_tb $end
$var wire 1 ! _D_rd $end
$var wire 1 " _D_empty $end
$var wire 8 # _D_dout [7:0] $end
$var wire 1 $ _B_rd $end
$var wire 1 % _B_empty $end
$var wire 8 & _B_dout [7:0] $end
$var wire 1 ' D_full $end
$var wire 1 ( D_empty $end
$var wire 8 ) D_dout [7:0] $end
$var wire 1 * C_full $end
$var wire 1 + C_empty $end
$var wire 8 , C_dout [7:0] $end
$var wire 1 - B_full $end
$var wire 1 . B_empty $end
$var wire 8 / B_dout [7:0] $end
$var wire 1 0 A_full $end
$var wire 1 1 A_empty $end
$var wire 8 2 A_dout [7:0] $end
$var reg 1 3 A_rd $end
$var reg 1 4 A_valid $end
$var reg 1 5 B_rd $end
$var reg 1 6 B_valid $end
$var reg 1 7 C_rd $end
$var reg 1 8 D_rd $end
$var reg 1 9 clk $end
$var reg 1 : error $end
$var reg 1 ; rst $end
$var integer 32 < A_rd_cnt [31:0] $end
$var integer 32 = A_wr_cnt [31:0] $end
$var integer 32 > B_rd_cnt [31:0] $end
$var integer 32 ? B_wr_cnt [31:0] $end
$var integer 32 @ C_rd_cnt [31:0] $end
$var integer 32 A C_wr_cnt [31:0] $end
$var integer 32 B D_rd_cnt [31:0] $end
$var integer 32 C D_wr_cnt [31:0] $end
$scope module A $end
$var wire 1 9 clk $end
$var wire 8 D din [7:0] $end
$var wire 1 0 full $end
$var wire 1 3 rd $end
$var wire 1 ; rst $end
$var wire 1 E wr $end
$var wire 1 F rd_internal $end
$var wire 8 G ram_dout [7:0] $end
$var wire 1 1 empty $end
$var wire 8 H dout [7:0] $end
$var reg 2 I rd_ptr [1:0] $end
$var reg 1 J rst_f $end
$var reg 2 K wr_ptr [1:0] $end
$scope begin genblk2 $end
$upscope $end
$scope module ram $end
$var wire 1 9 clk $end
$var wire 8 L din [7:0] $end
$var wire 1 M raddr $end
$var wire 1 N waddr $end
$var wire 1 O we $end
$var reg 8 P dout [7:0] $end
$scope begin genblk1 $end
$upscope $end
$upscope $end
$upscope $end
$scope module B $end
$var wire 1 9 clk $end
$var wire 8 Q din [7:0] $end
$var wire 1 - full $end
$var wire 1 ; rst $end
$var wire 1 R wr $end
$var wire 1 S rd_internal $end
$var wire 1 $ rd $end
$var wire 8 T ram_dout [7:0] $end
$var wire 1 % empty $end
$var wire 8 U dout [7:0] $end
$var reg 2 V rd_ptr [1:0] $end
$var reg 1 W rst_f $end
$var reg 2 X wr_ptr [1:0] $end
$scope begin genblk1 $end
$scope module buffer $end
$var wire 1 9 clk $end
$var wire 1 Y empty_i $end
$var wire 1 ; rst $end
$var wire 1 $ rd $end
$var wire 8 Z dout_i [7:0] $end
$var reg 8 [ dout [7:0] $end
$var reg 1 % empty $end
$var reg 1 S rd_i $end
$scope begin genblk2 $end
$var reg 8 \ dout_i_f [7:0] $end
$var reg 1 ] dout_i_valid $end
$upscope $end
$upscope $end
$upscope $end
$scope module ram $end
$var wire 1 9 clk $end
$var wire 8 ^ din [7:0] $end
$var wire 1 _ raddr $end
$var wire 1 ` waddr $end
$var wire 1 a we $end
$var reg 8 b dout [7:0] $end
$scope begin genblk1 $end
$upscope $end
$upscope $end
$upscope $end
$scope module B_buffer $end
$var wire 1 9 clk $end
$var wire 8 c dout_i [7:0] $end
$var wire 1 % empty_i $end
$var wire 1 5 rd $end
$var wire 1 ; rst $end
$var reg 8 d dout [7:0] $end
$var reg 1 . empty $end
$var reg 1 $ rd_i $end
$scope begin genblk1 $end
$upscope $end
$upscope $end
$scope module C $end
$var wire 1 9 clk $end
$var wire 8 e din [7:0] $end
$var wire 1 * full $end
$var wire 1 7 rd $end
$var wire 1 ; rst $end
$var wire 1 f wr $end
$var wire 1 g rd_internal $end
$var wire 8 h ram_dout [7:0] $end
$var wire 1 + empty $end
$var wire 8 i dout [7:0] $end
$var reg 2 j rd_ptr [1:0] $end
$var reg 1 k rst_f $end
$var reg 2 l wr_ptr [1:0] $end
$scope begin genblk1 $end
$scope module buffer $end
$var wire 1 9 clk $end
$var wire 1 m empty_i $end
$var wire 1 7 rd $end
$var wire 1 ; rst $end
$var wire 8 n dout_i [7:0] $end
$var reg 8 o dout [7:0] $end
$var reg 1 + empty $end
$var reg 1 g rd_i $end
$scope begin genblk2 $end
$var reg 8 p dout_i_f [7:0] $end
$var reg 1 q dout_i_valid $end
$upscope $end
$upscope $end
$upscope $end
$scope module ram $end
$var wire 1 9 clk $end
$var wire 8 r din [7:0] $end
$var wire 1 s raddr $end
$var wire 1 t waddr $end
$var wire 1 u we $end
$var reg 8 v dout [7:0] $end
$scope begin genblk1 $end
$upscope $end
$upscope $end
$upscope $end
$scope module D $end
$var wire 1 9 clk $end
$var wire 8 w din [7:0] $end
$var wire 1 ' full $end
$var wire 1 ; rst $end
$var wire 1 x wr $end
$var wire 1 y rd_internal $end
$var wire 1 ! rd $end
$var wire 8 z ram_dout [7:0] $end
$var wire 1 " empty $end
$var wire 8 { dout [7:0] $end
$var reg 2 | rd_ptr [1:0] $end
$var reg 1 } rst_f $end
$var reg 2 ~ wr_ptr [1:0] $end
$scope begin genblk2 $end
$upscope $end
$scope module ram $end
$var wire 1 9 clk $end
$var wire 8 !" din [7:0] $end
$var wire 1 "" raddr $end
$var wire 1 #" waddr $end
$var wire 1 $" we $end
$var reg 8 %" dout [7:0] $end
$scope begin genblk1 $end
$upscope $end
$upscope $end
$upscope $end
$scope module D_buffer $end
$var wire 1 9 clk $end
$var wire 8 &" dout_i [7:0] $end
$var wire 1 " empty_i $end
$var wire 1 8 rd $end
$var wire 1 ; rst $end
$var reg 8 '" dout [7:0] $end
$var reg 1 ( empty $end
$var reg 1 ! rd_i $end
$scope begin genblk2 $end
$var reg 8 (" dout_i_f [7:0] $end
$var reg 1 )" dout_i_valid $end
$upscope $end
$upscope $end
$upscope $end
$enddefinitions $end
#0
$dumpvars
x)"
bx ("
bx '"
bx &"
bx %"
0$"
x#"
x""
bx !"
bx ~
x}
bx |
bx {
bx z
xy
0x
bx w
bx v
0u
xt
xs
bx r
xq
bx p
bx o
bx n
xm
bx l
xk
bx j
bx i
bx h
xg
0f
bx e
bx d
bx c
bx b
0a
x`
x_
bx ^
x]
bx \
bx [
bx Z
xY
bx X
xW
bx V
bx U
bx T
xS
0R
bx Q
bx P
0O
xN
xM
bx L
bx K
xJ
bx I
bx H
bx G
xF
0E
bx D
bx C
bx B
bx A
bx @
bx ?
bx >
bx =
bx <
0;
x:
09
x8
x7
x6
x5
x4
x3
bx 2
x1
x0
bx /
x.
x-
bx ,
x+
x*
bx )
x(
x'
bx &
x%
x$
bx #
x"
x!
$end
#3
1;
#5
10
0M
11
0N
1S
1-
0_
1Y
0`
1*
0s
1m
0t
1'
0""
1"
0#"
1y
1!
1g
0$
1.
0$"
0u
0a
0O
1J
b0 I
b0 K
0]
1%
1W
b0 V
b0 X
0q
1+
1k
b0 j
b0 l
1}
b0 |
b0 ~
0)"
1(
0:
08
07
05
06
0F
03
04
b0 B
b0 @
b0 >
b0 <
1x
b1011010 w
b1011010 !"
b0 C
1f
b1011010 e
b1011010 r
b0 A
1R
b1011010 Q
b1011010 ^
b0 ?
1E
b1011010 D
b1011010 L
b0 =
19
#10
09
#13
0;
#15
1$"
1u
1a
1O
1$
0'
0*
0-
00
17
15
0}
0k
0W
0J
19
#20
09
#25
1N
01
1`
0Y
1t
0m
1#"
0"
b1 K
b1 X
b1 l
b1 ~
b11110110 w
b11110110 !"
b1 C
b11110110 e
b11110110 r
b1 A
b11110110 Q
b11110110 ^
b1 ?
b11110110 D
b11110110 L
b1 =
19
#30
09
#35
0u
0a
0O
1*
1-
10
1""
0#"
b1011010 )
b1011010 '"
0y
0!
0t
b1011010 ,
b1011010 i
b1011010 o
0`
b1011010 &
b1011010 U
b1011010 [
b1011010 c
0.
0N
b1001 w
b1001 !"
b10 C
b1001 e
b1001 r
b10 A
b1001 Q
b1001 ^
b10 ?
b1001 D
b1001 L
b10 =
1)"
0(
b1 |
b10 ~
b1011010 #
b1011010 {
b1011010 &"
b1011010 z
b1011010 %"
b10 l
b1011010 h
b1011010 n
b1011010 v
1q
0+
b10 X
b1011010 T
b1011010 Z
b1011010 b
1]
0%
b10 K
b1011010 2
b1011010 H
b1011010 G
b1011010 P
19
#40
09
#45
0$"
1a
1u
1'
1_
0-
1s
0*
1#"
b1011010 \
b1 V
b1011010 /
b1011010 d
b1011010 p
b1 j
b11110110 #
b11110110 {
b11110110 &"
b11110110 z
b11110110 %"
b11 ~
0)"
b1011010 ("
b1 @
16
b11000100 w
b11000100 !"
b11 C
19
#50
09
#55
0s
1t
b11110110 ,
b11110110 i
b11110110 o
0_
1`
b11110110 &
b11110110 U
b11110110 [
b11110110 c
b10 @
1:
b1 >
b11000100 e
b11000100 r
b11 A
b11000100 Q
b11000100 ^
b11 ?
b10 j
b11 l
b11110110 h
b11110110 n
b11110110 v
b10 V
b11 X
b11110110 T
b11110110 Z
b11110110 b
19
#60
09
#65
b1001 &
b1001 U
b1001 [
b1001 c
1_
0`
b1001 ,
b1001 i
b1001 o
1s
0t
b11110110 \
b1001 T
b1001 Z
b1001 b
b11 V
b0 X
b11110110 /
b11110110 d
b11110110 p
b1001 h
b1001 n
b1001 v
b11 j
b0 l
b11 @
b10 >
b10000001 e
b10000001 r
b100 A
b10000001 Q
b10000001 ^
b100 ?
19
#70
09
#75
0s
1t
b11000100 ,
b11000100 i
b11000100 o
0_
1`
b11000100 &
b11000100 U
b11000100 [
b11000100 c
b100 @
b11 >
b11100010 e
b11100010 r
b101 A
b11100010 Q
b11100010 ^
b101 ?
b0 j
b1 l
b11000100 h
b11000100 n
b11000100 v
b1001 p
b1001 /
b1001 d
b0 V
b1 X
b11000100 T
b11000100 Z
b11000100 b
b1001 \
19
#80
09
#85
b10000001 &
b10000001 U
b10000001 [
b10000001 c
1_
0`
b10000001 ,
b10000001 i
b10000001 o
1s
0t
b11000100 \
b10000001 T
b10000001 Z
b10000001 b
b1 V
b10 X
b11000100 /
b11000100 d
b11000100 p
b10000001 h
b10000001 n
b10000001 v
b1 j
b10 l
b101 @
b100 >
b10100000 e
b10100000 r
b110 A
b10100000 Q
b10100000 ^
b110 ?
19
#90
09
#95
0s
1t
b11100010 ,
b11100010 i
b11100010 o
0_
1`
b11100010 &
b11100010 U
b11100010 [
b11100010 c
b110 @
b101 >
b1111010 e
b1111010 r
b111 A
b1111010 Q
b1111010 ^
b111 ?
b10 j
b11 l
b11100010 h
b11100010 n
b11100010 v
b10000001 p
b10000001 /
b10000001 d
b10 V
b11 X
b11100010 T
b11100010 Z
b11100010 b
b10000001 \
19
#100
09
#105
b10100000 &
b10100000 U
b10100000 [
b10100000 c
1_
0`
b10100000 ,
b10100000 i
b10100000 o
1s
0t
0u
0a
b11100010 \
b10100000 T
b10100000 Z
b10100000 b
b11 V
b0 X
b11100010 /
b11100010 d
b11100010 p
b10100000 h
b10100000 n
b10100000 v
b11 j
b0 l
b111 @
b110 >
0f
bx e
bx r
b1000 A
0R
bx Q
bx ^
b1000 ?
19
#110
09
#115
0s
1m
b1111010 ,
b1111010 i
b1111010 o
0_
1Y
b1111010 &
b1111010 U
b1111010 [
b1111010 c
b1000 @
b111 >
b0 j
b1111010 h
b1111010 n
b1111010 v
b10100000 p
b10100000 /
b10100000 d
b0 V
b1111010 T
b1111010 Z
b1111010 b
b10100000 \
19
#120
09
#125
1.
1_
0Y
1s
0m
0]
1%
b1111010 \
b10100000 T
b10100000 Z
b10100000 b
b1 V
b1111010 /
b1111010 d
0q
1+
b1111010 p
b10100000 h
b10100000 n
b10100000 v
b1 j
b1001 @
b1000 >
19
#130
09
#135
0.
b1001 >
06
b1111010 h
b1111010 n
b1111010 v
1q
0+
b1111010 T
b1111010 Z
b1111010 b
1]
0%
19
#140
09
#145
0_
1-
0s
1*
b10 V
b10 j
b1010 @
16
19
#150
09
#155
1s
0*
b10100000 ,
b10100000 i
b10100000 o
1_
0-
b10100000 &
b10100000 U
b10100000 [
b10100000 c
b1011 @
b1010 >
b11 j
b10100000 h
b10100000 n
b10100000 v
b11 V
b10100000 T
b10100000 Z
b10100000 b
19
#160
09
#165
b1111010 &
b1111010 U
b1111010 [
b1111010 c
0_
1Y
b1111010 ,
b1111010 i
b1111010 o
0s
1m
b10100000 \
b1111010 T
b1111010 Z
b1111010 b
b0 V
b10100000 /
b10100000 d
b10100000 p
b1111010 h
b1111010 n
b1111010 v
b0 j
b1100 @
b1011 >
19
#170
09
#175
1s
0m
1_
0Y
1.
b1101 @
b1100 >
b1 j
b10100000 h
b10100000 n
b10100000 v
b1111010 p
0q
1+
b1111010 /
b1111010 d
b1 V
b10100000 T
b10100000 Z
b10100000 b
b1111010 \
0]
1%
19
#180
09
#185
0.
1]
0%
b1111010 T
b1111010 Z
b1111010 b
1q
0+
b1111010 h
b1111010 n
b1111010 v
b1101 >
06
19
#190
09
#195
0s
1*
0_
1-
b1110 @
16
b10 j
b10 V
19
#200
09
#205
b10100000 &
b10100000 U
b10100000 [
b10100000 c
1_
0-
b10100000 ,
b10100000 i
b10100000 o
1s
0*
b10100000 T
b10100000 Z
b10100000 b
b11 V
b10100000 h
b10100000 n
b10100000 v
b11 j
b1111 @
b1110 >
19
#210
09
#215
0s
1m
b1111010 ,
b1111010 i
b1111010 o
0_
1Y
b1111010 &
b1111010 U
b1111010 [
b1111010 c
b10000 @
b1111 >
b0 j
b1111010 h
b1111010 n
b1111010 v
b10100000 p
b10100000 /
b10100000 d
b0 V
b1111010 T
b1111010 Z
b1111010 b
b10100000 \
19
#220
09
#225
1.
1_
0Y
1s
0m
0]
1%
b1111010 \
b10100000 T
b10100000 Z
b10100000 b
b1 V
b1111010 /
b1111010 d
0q
1+
b1111010 p
b10100000 h
b10100000 n
b10100000 v
b1 j
b10001 @
b10000 >
19
#230
09
#235
0.
b10001 >
06
b1111010 h
b1111010 n
b1111010 v
1q
0+
b1111010 T
b1111010 Z
b1111010 b
1]
0%
19
#240
09
#245
0_
1-
0s
1*
b10 V
b10 j
b10010 @
16
19
#250
09
#255
1s
0*
b10100000 ,
b10100000 i
b10100000 o
1_
0-
b10100000 &
b10100000 U
b10100000 [
b10100000 c
b10011 @
b10010 >
b11 j
b10100000 h
b10100000 n
b10100000 v
b11 V
b10100000 T
b10100000 Z
b10100000 b
19
#260
09
#265
b1111010 &
b1111010 U
b1111010 [
b1111010 c
0_
1Y
b1111010 ,
b1111010 i
b1111010 o
0s
1m
b10100000 \
b1111010 T
b1111010 Z
b1111010 b
b0 V
b10100000 /
b10100000 d
b10100000 p
b1111010 h
b1111010 n
b1111010 v
b0 j
b10100 @
b10011 >
19
#270
09
#275
1s
0m
1_
0Y
1.
b10101 @
b10100 >
b1 j
b10100000 h
b10100000 n
b10100000 v
b1111010 p
0q
1+
b1111010 /
b1111010 d
b1 V
b10100000 T
b10100000 Z
b10100000 b
b1111010 \
0]
1%
19
#280
09
#285
0.
1]
0%
b1111010 T
b1111010 Z
b1111010 b
1q
0+
b1111010 h
b1111010 n
b1111010 v
b10101 >
06
19
#290
09
#295
0s
1*
0_
1-
b10110 @
16
b10 j
b10 V
19
#300
09
#305
b10100000 &
b10100000 U
b10100000 [
b10100000 c
1_
0-
b10100000 ,
b10100000 i
b10100000 o
1s
0*
b10100000 T
b10100000 Z
b10100000 b
b11 V
b10100000 h
b10100000 n
b10100000 v
b11 j
b10111 @
b10110 >
19
#310
09
#315
0s
1m
b1111010 ,
b1111010 i
b1111010 o
0_
1Y
b1111010 &
b1111010 U
b1111010 [
b1111010 c
b11000 @
b10111 >
b0 j
b1111010 h
b1111010 n
b1111010 v
b10100000 p
b10100000 /
b10100000 d
b0 V
b1111010 T
b1111010 Z
b1111010 b
b10100000 \
19
#320
09
#325
1.
1_
0Y
1s
0m
0]
1%
b1111010 \
b10100000 T
b10100000 Z
b10100000 b
b1 V
b1111010 /
b1111010 d
0q
1+
b1111010 p
b10100000 h
b10100000 n
b10100000 v
b1 j
b11001 @
b11000 >
19
#330
09
#335
0.
b11001 >
06
b1111010 h
b1111010 n
b1111010 v
1q
0+
b1111010 T
b1111010 Z
b1111010 b
1]
0%
19
#340
09
#345
0_
1-
0s
1*
b10 V
b10 j
b11010 @
16
19
#350
09
#355
1s
0*
b10100000 ,
b10100000 i
b10100000 o
1_
0-
b10100000 &
b10100000 U
b10100000 [
b10100000 c
b11011 @
b11010 >
b11 j
b10100000 h
b10100000 n
b10100000 v
b11 V
b10100000 T
b10100000 Z
b10100000 b
19
#360
09
#365
b1111010 &
b1111010 U
b1111010 [
b1111010 c
0_
1Y
b1111010 ,
b1111010 i
b1111010 o
0s
1m
b10100000 \
b1111010 T
b1111010 Z
b1111010 b
b0 V
b10100000 /
b10100000 d
b10100000 p
b1111010 h
b1111010 n
b1111010 v
b0 j
b11100 @
b11011 >
19
#370
09
#375
1s
0m
1_
0Y
1.
b11101 @
b11100 >
b1 j
b10100000 h
b10100000 n
b10100000 v
b1111010 p
0q
1+
b1111010 /
b1111010 d
b1 V
b10100000 T
b10100000 Z
b10100000 b
b1111010 \
0]
1%
19
#380
09
#385
0.
1]
0%
b1111010 T
b1111010 Z
b1111010 b
1q
0+
b1111010 h
b1111010 n
b1111010 v
b11101 >
06
19
#390
09
#395
0s
1*
0_
1-
b11110 @
16
b10 j
b10 V
19
#400
09
#405
b10100000 &
b10100000 U
b10100000 [
b10100000 c
1_
0-
b10100000 ,
b10100000 i
b10100000 o
1s
0*
b10100000 T
b10100000 Z
b10100000 b
b11 V
b10100000 h
b10100000 n
b10100000 v
b11 j
b11111 @
b11110 >
19
#410
09
#415
0s
1m
b1111010 ,
b1111010 i
b1111010 o
0_
1Y
b1111010 &
b1111010 U
b1111010 [
b1111010 c
b100000 @
b11111 >
b0 j
b1111010 h
b1111010 n
b1111010 v
b10100000 p
b10100000 /
b10100000 d
b0 V
b1111010 T
b1111010 Z
b1111010 b
b10100000 \
19
#420
09
#425
1.
1_
0Y
1s
0m
0]
1%
b1111010 \
b10100000 T
b10100000 Z
b10100000 b
b1 V
b1111010 /
b1111010 d
0q
1+
b1111010 p
b10100000 h
b10100000 n
b10100000 v
b1 j
b100001 @
b100000 >
19
#430
09
#435
0.
b100001 >
06
b1111010 h
b1111010 n
b1111010 v
1q
0+
b1111010 T
b1111010 Z
b1111010 b
1]
0%
19
#440
09
#445
0_
1-
0s
1*
b10 V
b10 j
b100010 @
16
19
#450
09
#455
1s
0*
b10100000 ,
b10100000 i
b10100000 o
1_
0-
b10100000 &
b10100000 U
b10100000 [
b10100000 c
b100011 @
b100010 >
b11 j
b10100000 h
b10100000 n
b10100000 v
b11 V
b10100000 T
b10100000 Z
b10100000 b
19
#460
09
#465
b1111010 &
b1111010 U
b1111010 [
b1111010 c
0_
1Y
b1111010 ,
b1111010 i
b1111010 o
0s
1m
b10100000 \
b1111010 T
b1111010 Z
b1111010 b
b0 V
b10100000 /
b10100000 d
b10100000 p
b1111010 h
b1111010 n
b1111010 v
b0 j
b100100 @
b100011 >
19
#470
09
#475
1s
0m
1_
0Y
1.
b100101 @
b100100 >
b1 j
b10100000 h
b10100000 n
b10100000 v
b1111010 p
0q
1+
b1111010 /
b1111010 d
b1 V
b10100000 T
b10100000 Z
b10100000 b
b1111010 \
0]
1%
19
#480
09
#485
0.
1]
0%
b1111010 T
b1111010 Z
b1111010 b
1q
0+
b1111010 h
b1111010 n
b1111010 v
b100101 >
06
19
#490
09
#495
0s
1*
0_
1-
b100110 @
16
b10 j
b10 V
19
#500
09
#505
b10100000 &
b10100000 U
b10100000 [
b10100000 c
1_
0-
b10100000 ,
b10100000 i
b10100000 o
1s
0*
b10100000 T
b10100000 Z
b10100000 b
b11 V
b10100000 h
b10100000 n
b10100000 v
b11 j
b100111 @
b100110 >
19
#510
09
#515
0s
1m
b1111010 ,
b1111010 i
b1111010 o
0_
1Y
b1111010 &
b1111010 U
b1111010 [
b1111010 c
b101000 @
b100111 >
b0 j
b1111010 h
b1111010 n
b1111010 v
b10100000 p
b10100000 /
b10100000 d
b0 V
b1111010 T
b1111010 Z
b1111010 b
b10100000 \
19
#520
09
#525
1.
1_
0Y
1s
0m
0]
1%
b1111010 \
b10100000 T
b10100000 Z
b10100000 b
b1 V
b1111010 /
b1111010 d
0q
1+
b1111010 p
b10100000 h
b10100000 n
b10100000 v
b1 j
b101001 @
b101000 >
19
#530
09
#535
0.
b101001 >
06
b1111010 h
b1111010 n
b1111010 v
1q
0+
b1111010 T
b1111010 Z
b1111010 b
1]
0%
19
#540
09
#545
0_
1-
0s
1*
b10 V
b10 j
b101010 @
16
19
#550
09
#555
1s
0*
b10100000 ,
b10100000 i
b10100000 o
1_
0-
b10100000 &
b10100000 U
b10100000 [
b10100000 c
b101011 @
b101010 >
b11 j
b10100000 h
b10100000 n
b10100000 v
b11 V
b10100000 T
b10100000 Z
b10100000 b
19
#560
09
#565
b1111010 &
b1111010 U
b1111010 [
b1111010 c
0_
1Y
b1111010 ,
b1111010 i
b1111010 o
0s
1m
b10100000 \
b1111010 T
b1111010 Z
b1111010 b
b0 V
b10100000 /
b10100000 d
b10100000 p
b1111010 h
b1111010 n
b1111010 v
b0 j
b101100 @
b101011 >
19
#570
09
#575
1s
0m
1_
0Y
1.
b101101 @
b101100 >
b1 j
b10100000 h
b10100000 n
b10100000 v
b1111010 p
0q
1+
b1111010 /
b1111010 d
b1 V
b10100000 T
b10100000 Z
b10100000 b
b1111010 \
0]
1%
19
#580
09
#585
0.
1]
0%
b1111010 T
b1111010 Z
b1111010 b
1q
0+
b1111010 h
b1111010 n
b1111010 v
b101101 >
06
19
#590
09
#595
0s
1*
0_
1-
b101110 @
16
b10 j
b10 V
19
#600
09
#605
b10100000 &
b10100000 U
b10100000 [
b10100000 c
1_
0-
b10100000 ,
b10100000 i
b10100000 o
1s
0*
b10100000 T
b10100000 Z
b10100000 b
b11 V
b10100000 h
b10100000 n
b10100000 v
b11 j
b101111 @
b101110 >
19
#610
09
#615
0s
1m
b1111010 ,
b1111010 i
b1111010 o
0_
1Y
b1111010 &
b1111010 U
b1111010 [
b1111010 c
b110000 @
b101111 >
b0 j
b1111010 h
b1111010 n
b1111010 v
b10100000 p
b10100000 /
b10100000 d
b0 V
b1111010 T
b1111010 Z
b1111010 b
b10100000 \
19
#620
09
#625
1.
1_
0Y
1s
0m
0]
1%
b1111010 \
b10100000 T
b10100000 Z
b10100000 b
b1 V
b1111010 /
b1111010 d
0q
1+
b1111010 p
b10100000 h
b10100000 n
b10100000 v
b1 j
b110001 @
b110000 >
19
#630
09
#635
0.
b110001 >
06
b1111010 h
b1111010 n
b1111010 v
1q
0+
b1111010 T
b1111010 Z
b1111010 b
1]
0%
19
#640
09
#645
0_
1-
0s
1*
b10 V
b10 j
b110010 @
16
19
#650
09
#655
1s
0*
b10100000 ,
b10100000 i
b10100000 o
1_
0-
b10100000 &
b10100000 U
b10100000 [
b10100000 c
b110011 @
b110010 >
b11 j
b10100000 h
b10100000 n
b10100000 v
b11 V
b10100000 T
b10100000 Z
b10100000 b
19
#660
09
#665
b1111010 &
b1111010 U
b1111010 [
b1111010 c
0_
1Y
b1111010 ,
b1111010 i
b1111010 o
0s
1m
b10100000 \
b1111010 T
b1111010 Z
b1111010 b
b0 V
b10100000 /
b10100000 d
b10100000 p
b1111010 h
b1111010 n
b1111010 v
b0 j
b110100 @
b110011 >
19
#670
09
#675
1s
0m
1_
0Y
1.
b110101 @
b110100 >
b1 j
b10100000 h
b10100000 n
b10100000 v
b1111010 p
0q
1+
b1111010 /
b1111010 d
b1 V
b10100000 T
b10100000 Z
b10100000 b
b1111010 \
0]
1%
19
#680
09
#685
0.
1]
0%
b1111010 T
b1111010 Z
b1111010 b
1q
0+
b1111010 h
b1111010 n
b1111010 v
b110101 >
06
19
#690
09
#695
0s
1*
0_
1-
b110110 @
16
b10 j
b10 V
19
#700
09
#705
b10100000 &
b10100000 U
b10100000 [
b10100000 c
1_
0-
b10100000 ,
b10100000 i
b10100000 o
1s
0*
b10100000 T
b10100000 Z
b10100000 b
b11 V
b10100000 h
b10100000 n
b10100000 v
b11 j
b110111 @
b110110 >
19
#710
09
#715
0s
1m
b1111010 ,
b1111010 i
b1111010 o
0_
1Y
b1111010 &
b1111010 U
b1111010 [
b1111010 c
b111000 @
b110111 >
b0 j
b1111010 h
b1111010 n
b1111010 v
b10100000 p
b10100000 /
b10100000 d
b0 V
b1111010 T
b1111010 Z
b1111010 b
b10100000 \
19
#720
09
#725
1.
1_
0Y
1s
0m
0]
1%
b1111010 \
b10100000 T
b10100000 Z
b10100000 b
b1 V
b1111010 /
b1111010 d
0q
1+
b1111010 p
b10100000 h
b10100000 n
b10100000 v
b1 j
b111001 @
b111000 >
19
#730
09
#735
0.
b111001 >
06
b1111010 h
b1111010 n
b1111010 v
1q
0+
b1111010 T
b1111010 Z
b1111010 b
1]
0%
19
#740
09
#745
0_
1-
0s
1*
b10 V
b10 j
b111010 @
16
19
#750
09
#755
1s
0*
b10100000 ,
b10100000 i
b10100000 o
1_
0-
b10100000 &
b10100000 U
b10100000 [
b10100000 c
b111011 @
b111010 >
b11 j
b10100000 h
b10100000 n
b10100000 v
b11 V
b10100000 T
b10100000 Z
b10100000 b
19
#760
09
#765
b1111010 &
b1111010 U
b1111010 [
b1111010 c
0_
1Y
b1111010 ,
b1111010 i
b1111010 o
0s
1m
b10100000 \
b1111010 T
b1111010 Z
b1111010 b
b0 V
b10100000 /
b10100000 d
b10100000 p
b1111010 h
b1111010 n
b1111010 v
b0 j
b111100 @
b111011 >
19
#770
09
#775
1s
0m
1_
0Y
1.
b111101 @
b111100 >
b1 j
b10100000 h
b10100000 n
b10100000 v
b1111010 p
0q
1+
b1111010 /
b1111010 d
b1 V
b10100000 T
b10100000 Z
b10100000 b
b1111010 \
0]
1%
19
#780
09
#785
0.
1]
0%
b1111010 T
b1111010 Z
b1111010 b
1q
0+
b1111010 h
b1111010 n
b1111010 v
b111101 >
06
19
#790
09
#795
0s
1*
0_
1-
b111110 @
16
b10 j
b10 V
19
#800
09
#805
b10100000 &
b10100000 U
b10100000 [
b10100000 c
1_
0-
b10100000 ,
b10100000 i
b10100000 o
1s
0*
b10100000 T
b10100000 Z
b10100000 b
b11 V
b10100000 h
b10100000 n
b10100000 v
b11 j
b111111 @
b111110 >
19
#810
09
#815
0s
1m
b1111010 ,
b1111010 i
b1111010 o
0_
1Y
b1111010 &
b1111010 U
b1111010 [
b1111010 c
b1000000 @
b111111 >
b0 j
b1111010 h
b1111010 n
b1111010 v
b10100000 p
b10100000 /
b10100000 d
b0 V
b1111010 T
b1111010 Z
b1111010 b
b10100000 \
19
#820
09
#825
1.
1_
0Y
1s
0m
0]
1%
b1111010 \
b10100000 T
b10100000 Z
b10100000 b
b1 V
b1111010 /
b1111010 d
0q
1+
b1111010 p
b10100000 h
b10100000 n
b10100000 v
b1 j
b1000001 @
b1000000 >
19
#830
09
#835
0.
b1000001 >
06
b1111010 h
b1111010 n
b1111010 v
1q
0+
b1111010 T
b1111010 Z
b1111010 b
1]
0%
19
#840
09
#845
0_
1-
0s
1*
b10 V
b10 j
b1000010 @
16
19
#850
09
#855
1s
0*
b10100000 ,
b10100000 i
b10100000 o
1_
0-
b10100000 &
b10100000 U
b10100000 [
b10100000 c
b1000011 @
b1000010 >
b11 j
b10100000 h
b10100000 n
b10100000 v
b11 V
b10100000 T
b10100000 Z
b10100000 b
19
#860
09
#865
b1111010 &
b1111010 U
b1111010 [
b1111010 c
0_
1Y
b1111010 ,
b1111010 i
b1111010 o
0s
1m
b10100000 \
b1111010 T
b1111010 Z
b1111010 b
b0 V
b10100000 /
b10100000 d
b10100000 p
b1111010 h
b1111010 n
b1111010 v
b0 j
b1000100 @
b1000011 >
19
#870
09
#875
1s
0m
1_
0Y
1.
b1000101 @
b1000100 >
b1 j
b10100000 h
b10100000 n
b10100000 v
b1111010 p
0q
1+
b1111010 /
b1111010 d
b1 V
b10100000 T
b10100000 Z
b10100000 b
b1111010 \
0]
1%
19
#880
09
#885
0.
1]
0%
b1111010 T
b1111010 Z
b1111010 b
1q
0+
b1111010 h
b1111010 n
b1111010 v
b1000101 >
06
19
#890
09
#895
0s
1*
0_
1-
b1000110 @
16
b10 j
b10 V
19
#900
09
#905
b10100000 &
b10100000 U
b10100000 [
b10100000 c
1_
0-
b10100000 ,
b10100000 i
b10100000 o
1s
0*
b10100000 T
b10100000 Z
b10100000 b
b11 V
b10100000 h
b10100000 n
b10100000 v
b11 j
b1000111 @
b1000110 >
19
#910
09
#915
0s
1m
b1111010 ,
b1111010 i
b1111010 o
0_
1Y
b1111010 &
b1111010 U
b1111010 [
b1111010 c
b1001000 @
b1000111 >
b0 j
b1111010 h
b1111010 n
b1111010 v
b10100000 p
b10100000 /
b10100000 d
b0 V
b1111010 T
b1111010 Z
b1111010 b
b10100000 \
19
#920
09
#925
1.
1_
0Y
1s
0m
0]
1%
b1111010 \
b10100000 T
b10100000 Z
b10100000 b
b1 V
b1111010 /
b1111010 d
0q
1+
b1111010 p
b10100000 h
b10100000 n
b10100000 v
b1 j
b1001001 @
b1001000 >
19
#930
09
#935
0.
b1001001 >
06
b1111010 h
b1111010 n
b1111010 v
1q
0+
b1111010 T
b1111010 Z
b1111010 b
1]
0%
19
#940
09
#945
0_
1-
0s
1*
b10 V
b10 j
b1001010 @
16
19
#950
09
